Assignment 3: Correlations, Differences, + Associations
…
anova1 <- aov(age_struct ~ HHT_label, data = hh_data)
summary(anova1)

##                Df   Sum Sq Mean Sq F value   Pr(>F)    
## HHT_label       6    67163   11194   10.77 5.37e-12 ***
## Residuals   17915 18613000    1039                     
## ---
## Signif. codes:  0 '***' 0.001 '**' 0.01 '*' 0.05 '.' 0.1 ' ' 1

differences1 <- TukeyHSD(anova1)

as_tibble(cbind(pair = row.names(differences1$age_struct),
                differences1$HHT_label))

## # A tibble: 21 x 4
##       diff    lwr   upr      `p adj`
##      <dbl>  <dbl> <dbl>        <dbl>
##  1 -3.53   -5.95  -1.10 0.000357    
##  2  3.04    0.391  5.69 0.0127      
##  3  0.397  -2.34   3.13 1.00        
##  4  1.53   -1.03   4.09 0.574       
##  5  2.79    0.830  4.76 0.000547    
##  6 -0.0580 -3.24   3.13 1.00        
##  7  6.57    3.41   9.72 0.0000000514
##  8  3.92    0.699  7.15 0.00617     
##  9  5.05    1.98   8.13 0.0000266   
## 10  6.32    3.72   8.92 0.0000000337
## # ... with 11 more rows
…
anova3 <- aov(bedrooms ~ HHT_label, data = hh_data)
summary(anova3)

##                Df Sum Sq Mean Sq F value Pr(>F)    
## HHT_label       6   3859   643.1   723.8 <2e-16 ***
## Residuals   17915  15919     0.9                   
## ---
## Signif. codes:  0 '***' 0.001 '**' 0.01 '*' 0.05 '.' 0.1 ' ' 1

differences3 <- TukeyHSD(anova3)

as_tibble(cbind(pair = row.names(differences3$bedrooms),
                differences3$HHT_label))

## # A tibble: 21 x 4
##       diff     lwr      upr      `p adj`
##      <dbl>   <dbl>    <dbl>        <dbl>
##  1 -1.04   -1.11   -0.967   0.0000000337
##  2 -0.0791 -0.157  -0.00154 0.0422      
##  3 -1.11   -1.19   -1.03    0.0000000337
##  4 -0.0452 -0.120   0.0296  0.560       
##  5  0.251   0.194   0.309   0.0000000337
##  6  0.125   0.0316  0.218   0.00152     
##  7  0.959   0.867   1.05    0.0000000337
##  8 -0.0717 -0.166   0.0226  0.273       
##  9  0.993   0.903   1.08    0.0000000337
## 10  1.29    1.21    1.37    0.0000000337
## # ... with 11 more rows
…
anova5 <- aov(num_persons ~ HHT_label, data = hh_data)
summary(anova5)

##                Df Sum Sq Mean Sq F value Pr(>F)    
## HHT_label       6  17405  2900.9    1969 <2e-16 ***
## Residuals   17915  26393     1.5                   
## ---
## Signif. codes:  0 '***' 0.001 '**' 0.01 '*' 0.05 '.' 0.1 ' ' 1

differences5 <- TukeyHSD(anova5)

as_tibble(cbind(pair = row.names(differences5$num_persons),
                differences5$HHT_label))

## # A tibble: 21 x 4
##         diff    lwr     upr      `p adj`
##        <dbl>  <dbl>   <dbl>        <dbl>
##  1 -2.60e+ 0 -2.69  -2.51   0.0000000337
##  2 -1.02e+ 0 -1.12  -0.921  0.0000000337
##  3 -2.60e+ 0 -2.70  -2.50   0.0000000337
##  4 -9.02e- 1 -0.999 -0.806  0.0000000337
##  5 -1.75e- 1 -0.249 -0.101  0.0000000338
##  6 -1.64e- 1 -0.284 -0.0443 0.00106     
##  7  1.58e+ 0  1.46   1.70   0.0000000337
##  8 -2.48e-13 -0.121  0.121  1           
##  9  1.70e+ 0  1.58   1.81   0.0000000337
## 10  2.42e+ 0  2.33   2.52   0.0000000337
## # ... with 11 more rows
…
anova7 <- aov(move_in ~ HHT_label, data = hh_data)
summary(anova7)

##                Df Sum Sq Mean Sq F value Pr(>F)    
## HHT_label       6  32412    5402   131.9 <2e-16 ***
## Residuals   17915 733488      41                   
## ---
## Signif. codes:  0 '***' 0.001 '**' 0.01 '*' 0.05 '.' 0.1 ' ' 1

differences7 <- TukeyHSD(anova7)

as_tibble(cbind(pair = row.names(differences5$move_in),
                differences5$HHT_label))

## # A tibble: 21 x 4
##         diff    lwr     upr      `p adj`
##        <dbl>  <dbl>   <dbl>        <dbl>
##  1 -2.60e+ 0 -2.69  -2.51   0.0000000337
##  2 -1.02e+ 0 -1.12  -0.921  0.0000000337
##  3 -2.60e+ 0 -2.70  -2.50   0.0000000337
##  4 -9.02e- 1 -0.999 -0.806  0.0000000337
##  5 -1.75e- 1 -0.249 -0.101  0.0000000338
##  6 -1.64e- 1 -0.284 -0.0443 0.00106     
##  7  1.58e+ 0  1.46   1.70   0.0000000337
##  8 -2.48e-13 -0.121  0.121  1           
##  9  1.70e+ 0  1.58   1.81   0.0000000337
## 10  2.42e+ 0  2.33   2.52   0.0000000337
## # ... with 11 more rows
…
